%YAML 1.1
%TAG !u! tag:unity3d.com,2011:
--- !u!114 &11400000
MonoBehaviour:
  m_ObjectHideFlags: 0
  m_CorrespondingSourceObject: {fileID: 0}
  m_PrefabInstance: {fileID: 0}
  m_PrefabAsset: {fileID: 0}
  m_GameObject: {fileID: 0}
  m_Enabled: 1
  m_EditorHideFlags: 0
  m_Script: {fileID: 11500000, guid: 001a1630984e8dd418bb687e6c7143f9, type: 3}
  m_Name: International Childe Comp
  m_EditorClassIdentifier: 
  Name: International Childe Comp
  characters:
  - {fileID: 11400000, guid: 8b47294710ef7874880b161af10b4320, type: 2}
  - {fileID: 11400000, guid: ca9026e3d2f0e364e9df30ff48f889ce, type: 2}
  - {fileID: 11400000, guid: 25b89739f7bc0c24f8c75f74b7e7d380, type: 2}
  - {fileID: 11400000, guid: 5cb2eb82167e43f4c8909d2ce54e837c, type: 2}
