%YAML 1.1
%TAG !u! tag:unity3d.com,2011:
--- !u!114 &11400000
MonoBehaviour:
  m_ObjectHideFlags: 0
  m_CorrespondingSourceObject: {fileID: 0}
  m_PrefabInstance: {fileID: 0}
  m_PrefabAsset: {fileID: 0}
  m_GameObject: {fileID: 0}
  m_Enabled: 1
  m_EditorHideFlags: 0
  m_Script: {fileID: 11500000, guid: 001a1630984e8dd418bb687e6c7143f9, type: 3}
  m_Name: National
  m_EditorClassIdentifier: 
  Name: National
  characters:
  - {fileID: 11400000, guid: 8b47294710ef7874880b161af10b4320, type: 2}
  - {fileID: 11400000, guid: 4ea6fb3f66b7d8342a7044d63733ec13, type: 2}
  - {fileID: 11400000, guid: a1da65a46cd30f4448bbf0252ff9046b, type: 2}
  - {fileID: 11400000, guid: ca9026e3d2f0e364e9df30ff48f889ce, type: 2}
