%YAML 1.1
%TAG !u! tag:unity3d.com,2011:
--- !u!114 &11400000
MonoBehaviour:
  m_ObjectHideFlags: 0
  m_CorrespondingSourceObject: {fileID: 0}
  m_PrefabInstance: {fileID: 0}
  m_PrefabAsset: {fileID: 0}
  m_GameObject: {fileID: 0}
  m_Enabled: 1
  m_EditorHideFlags: 0
  m_Script: {fileID: 11500000, guid: 2505c4b672b36844f81fbe84a6f69db8, type: 3}
  m_Name: Ayato
  m_EditorClassIdentifier: 
  Name: Kamisato Ayato
  MiniImage: {fileID: 21300000, guid: a1b4ec25187d89448a89e211404a8978, type: 3}
  BigImage: {fileID: 21300000, guid: 0c9ee642fbc12b14ab8ee426f97bb25c, type: 3}
  myClass: 0
