%YAML 1.1
%TAG !u! tag:unity3d.com,2011:
--- !u!114 &11400000
MonoBehaviour:
  m_ObjectHideFlags: 0
  m_CorrespondingSourceObject: {fileID: 0}
  m_PrefabInstance: {fileID: 0}
  m_PrefabAsset: {fileID: 0}
  m_GameObject: {fileID: 0}
  m_Enabled: 1
  m_EditorHideFlags: 0
  m_Script: {fileID: 11500000, guid: 2505c4b672b36844f81fbe84a6f69db8, type: 3}
  m_Name: Klee
  m_EditorClassIdentifier: 
  Name: Klee
  MiniImage: {fileID: 21300000, guid: 1f212364807b4284a8dac5f1d4f372d1, type: 3}
  BigImage: {fileID: 21300000, guid: 8314ebe9b53ad5d44ba692d2ce040591, type: 3}
  myClass: 0
