%YAML 1.1
%TAG !u! tag:unity3d.com,2011:
--- !u!114 &11400000
MonoBehaviour:
  m_ObjectHideFlags: 0
  m_CorrespondingSourceObject: {fileID: 0}
  m_PrefabInstance: {fileID: 0}
  m_PrefabAsset: {fileID: 0}
  m_GameObject: {fileID: 0}
  m_Enabled: 1
  m_EditorHideFlags: 0
  m_Script: {fileID: 11500000, guid: 2505c4b672b36844f81fbe84a6f69db8, type: 3}
  m_Name: Qiqi
  m_EditorClassIdentifier: 
  Name: Qiqi
  MiniImage: {fileID: 21300000, guid: 07e99604786eaee46b3c1d37cd940608, type: 3}
  BigImage: {fileID: 21300000, guid: 26f3fdc97d3f93b47bd12098324259fb, type: 3}
  myClass: 3
