%YAML 1.1
%TAG !u! tag:unity3d.com,2011:
--- !u!114 &11400000
MonoBehaviour:
  m_ObjectHideFlags: 0
  m_CorrespondingSourceObject: {fileID: 0}
  m_PrefabInstance: {fileID: 0}
  m_PrefabAsset: {fileID: 0}
  m_GameObject: {fileID: 0}
  m_Enabled: 1
  m_EditorHideFlags: 0
  m_Script: {fileID: 11500000, guid: 2505c4b672b36844f81fbe84a6f69db8, type: 3}
  m_Name: Xiao
  m_EditorClassIdentifier: 
  Name: Xiao
  MiniImage: {fileID: 21300000, guid: ed27fb4db930b6a4ab882c7792358602, type: 3}
  BigImage: {fileID: 21300000, guid: 15f27501622fb604f8c00940d09cef22, type: 3}
  myClass: 0
