[api-updater (non-obsolete-error-filter)] 28/7/2022 10:01:01 p. m. : Starting C:/Program Files/Unity/Hub/Editor/2020.3.24f1/Editor/Data/Tools/ScriptUpdater/APIUpdater.NonObsoleteApiUpdaterDetector.exe
[api-updater (non-obsolete-error-filter)] 
----------------------------------
jit/startup time      : 5419,5574ms
moved types parse time: 95ms
candidates parse time : 1ms
C# parse time         : 1426ms
candidates check time : 110ms
console write time    : 13ms

